[
  {
    "name": "Premium Cotton",
    "features": "180-200 GSM, best sweat absorbent, ideal for sensitive skin, pre-shrunk, soft washed"
  },
  {
    "name": "Supercombed Cotton",
    "features": "180-200 GSM, economical cloth with cotton finish (40% - 60% cotton), usually provided by local vendors, pre-shrunk, soft washed."
  },
  {
    "name": "Combed Cotton",
    "features": "180-200 GSM, very economical, low quality product (20% cotton), used for sponsored events, pre-shrunk"
  },
  {
    "name": "Premium Cotton",
    "features": "220-240 GSM, premium cotton cloth with matte weave, best sweat absorbent, ideal for sensitive skin, pre-shrunk, soft washed"
  },
  {
    "name": "Supercombed Cotton Matte",
    "features": "220-240 GSM, supercombed cotton with matte weave, economical cloth with cotton finish (40% - 60% cotton), usually provided by local vendors, pre-shrunk, soft washed."
  },
  {
    "name": "Polystyrene",
    "features": "100% synthetic cloth, very economical, low quality product, used for sponsored events and marathons, withstand wear and tear longer"
  },
  {
    "name": "Microfibre (Dry Fit)",
    "features": "Ideal for sports jerseys, anti wrinkle, stretchable, very durable, 100% synthetic."
  },
  {
    "name": "Microfibre Matte (Dry Fit)",
    "features": "Microfibre cloth with matte weave, Ideal for sports jerseys, anti wrinkle, stretchable, very durable, 100% synthetic"
  },
  {
    "name": "Honeycomb",
    "features": "Ideal for sports jerseys, anti wrinkle, stretchable, very durable, 100% synthetic, used as strips in sports jerseys, better breathability."
  }
]
